{
  "id": "mipoc4",
  "realm": "mipoc4",
  "notBefore": 1543882046,
  "revokeRefreshToken": false,
  "refreshTokenMaxReuse": 0,
  "accessTokenLifespan": 28800,
  "accessTokenLifespanForImplicitFlow": 28800,
  "ssoSessionIdleTimeout": 36000,
  "ssoSessionMaxLifespan": 54000,
  "offlineSessionIdleTimeout": 2592000,
  "offlineSessionMaxLifespanEnabled": false,
  "offlineSessionMaxLifespan": 5184000,
  "accessCodeLifespan": 60,
  "accessCodeLifespanUserAction": 300,
  "accessCodeLifespanLogin": 1800,
  "actionTokenGeneratedByAdminLifespan": 43200,
  "actionTokenGeneratedByUserLifespan": 300,
  "enabled": true,
  "sslRequired": "none",
  "registrationAllowed": false,
  "registrationEmailAsUsername": false,
  "rememberMe": false,
  "verifyEmail": false,
  "loginWithEmailAllowed": true,
  "duplicateEmailsAllowed": false,
  "resetPasswordAllowed": false,
  "editUsernameAllowed": false,
  "bruteForceProtected": false,
  "permanentLockout": false,
  "maxFailureWaitSeconds": 900,
  "minimumQuickLoginWaitSeconds": 60,
  "waitIncrementSeconds": 60,
  "quickLoginCheckMilliSeconds": 1000,
  "maxDeltaTimeSeconds": 43200,
  "failureFactor": 30,
  "roles": {
    "realm": [
      {
        "id": "8a32ff5f-d556-4183-968c-6f74ca1a5e03",
        "name": "uma_authorization",
        "description": "${role_uma_authorization}",
        "composite": false,
        "clientRole": false,
        "containerId": "mipoc4"
      },
      {
        "id": "d42648d4-ba91-474a-8888-7b525858e319",
        "name": "offline_access",
        "description": "${role_offline-access}",
        "composite": false,
        "clientRole": false,
        "containerId": "mipoc4"
      },
      {
        "id": "b677a5e8-67de-46dc-a780-f82ae01d11f7",
        "name": "MaintenanceRepairEngineer",
        "composite": false,
        "clientRole": false,
        "containerId": "mipoc4"
      }
    ],
    "client": {
      "realm-management": [
        {
          "id": "74c5f5a0-7ef3-45e2-8d4d-5a7782880d8a",
          "name": "view-authorization",
          "description": "${role_view-authorization}",
          "composite": false,
          "clientRole": true,
          "containerId": "6d38540b-5554-41fd-8174-6cbd55c3f695"
        },
        {
          "id": "5f38d218-2afc-47b8-a41c-d8092c1a954f",
          "name": "query-groups",
          "description": "${role_query-groups}",
          "composite": false,
          "clientRole": true,
          "containerId": "6d38540b-5554-41fd-8174-6cbd55c3f695"
        },
        {
          "id": "e32e8016-914e-4625-ab3a-653b01b5a653",
          "name": "manage-users",
          "description": "${role_manage-users}",
          "composite": false,
          "clientRole": true,
          "containerId": "6d38540b-5554-41fd-8174-6cbd55c3f695"
        },
        {
          "id": "da1b1282-eb98-4b14-97a9-c97dd6dc6bde",
          "name": "impersonation",
          "description": "${role_impersonation}",
          "composite": false,
          "clientRole": true,
          "containerId": "6d38540b-5554-41fd-8174-6cbd55c3f695"
        },
        {
          "id": "ebc3385d-c035-439a-9b25-4d59dcd977bc",
          "name": "manage-identity-providers",
          "description": "${role_manage-identity-providers}",
          "composite": false,
          "clientRole": true,
          "containerId": "6d38540b-5554-41fd-8174-6cbd55c3f695"
        },
        {
          "id": "31c724ef-ea52-4781-8a66-f130fc9d5ab1",
          "name": "manage-authorization",
          "description": "${role_manage-authorization}",
          "composite": false,
          "clientRole": true,
          "containerId": "6d38540b-5554-41fd-8174-6cbd55c3f695"
        },
        {
          "id": "105c56bd-0a9a-48e0-88a2-17f0aa59dd30",
          "name": "view-events",
          "description": "${role_view-events}",
          "composite": false,
          "clientRole": true,
          "containerId": "6d38540b-5554-41fd-8174-6cbd55c3f695"
        },
        {
          "id": "03cd7fe5-5eef-447b-b734-5ca4e7fab2f4",
          "name": "view-identity-providers",
          "description": "${role_view-identity-providers}",
          "composite": false,
          "clientRole": true,
          "containerId": "6d38540b-5554-41fd-8174-6cbd55c3f695"
        },
        {
          "id": "f200ed34-054e-45db-8ded-d3e2a1460f00",
          "name": "view-clients",
          "description": "${role_view-clients}",
          "composite": true,
          "composites": {
            "client": {
              "realm-management": [
                "query-clients"
              ]
            }
          },
          "clientRole": true,
          "containerId": "6d38540b-5554-41fd-8174-6cbd55c3f695"
        },
        {
          "id": "2537e8e8-c432-482e-b64d-285e27c8bdb8",
          "name": "query-realms",
          "description": "${role_query-realms}",
          "composite": false,
          "clientRole": true,
          "containerId": "6d38540b-5554-41fd-8174-6cbd55c3f695"
        },
        {
          "id": "d3e833a2-8625-4d42-83bf-c0ede28dc79b",
          "name": "view-realm",
          "description": "${role_view-realm}",
          "composite": false,
          "clientRole": true,
          "containerId": "6d38540b-5554-41fd-8174-6cbd55c3f695"
        },
        {
          "id": "7fe2f97e-8d5f-4534-ad65-cb45d2663587",
          "name": "manage-clients",
          "description": "${role_manage-clients}",
          "composite": false,
          "clientRole": true,
          "containerId": "6d38540b-5554-41fd-8174-6cbd55c3f695"
        },
        {
          "id": "3ff54456-bef1-46d6-a396-e516544bab00",
          "name": "create-client",
          "description": "${role_create-client}",
          "composite": false,
          "clientRole": true,
          "containerId": "6d38540b-5554-41fd-8174-6cbd55c3f695"
        },
        {
          "id": "4d5da49e-1247-466d-932b-58fb7c2ef558",
          "name": "query-users",
          "description": "${role_query-users}",
          "composite": false,
          "clientRole": true,
          "containerId": "6d38540b-5554-41fd-8174-6cbd55c3f695"
        },
        {
          "id": "dff434fb-31c7-4a91-98df-7ab8538eb404",
          "name": "view-users",
          "description": "${role_view-users}",
          "composite": true,
          "composites": {
            "client": {
              "realm-management": [
                "query-users",
                "query-groups"
              ]
            }
          },
          "clientRole": true,
          "containerId": "6d38540b-5554-41fd-8174-6cbd55c3f695"
        },
        {
          "id": "4e0f3422-223a-4971-88ca-0a1435151aa6",
          "name": "manage-events",
          "description": "${role_manage-events}",
          "composite": false,
          "clientRole": true,
          "containerId": "6d38540b-5554-41fd-8174-6cbd55c3f695"
        },
        {
          "id": "53deb944-9036-4a6f-88fb-cfd9ff42b6e2",
          "name": "query-clients",
          "description": "${role_query-clients}",
          "composite": false,
          "clientRole": true,
          "containerId": "6d38540b-5554-41fd-8174-6cbd55c3f695"
        },
        {
          "id": "ece2147d-e215-454d-9bb1-8c3d2ae654d8",
          "name": "manage-realm",
          "description": "${role_manage-realm}",
          "composite": false,
          "clientRole": true,
          "containerId": "6d38540b-5554-41fd-8174-6cbd55c3f695"
        },
        {
          "id": "9fb1ea39-e683-4769-bea3-8ea059adcaba",
          "name": "realm-admin",
          "description": "${role_realm-admin}",
          "composite": true,
          "composites": {
            "client": {
              "realm-management": [
                "view-authorization",
                "query-groups",
                "impersonation",
                "manage-users",
                "manage-authorization",
                "manage-identity-providers",
                "view-events",
                "view-identity-providers",
                "query-realms",
                "view-clients",
                "manage-clients",
                "view-realm",
                "create-client",
                "query-users",
                "view-users",
                "manage-events",
                "query-clients",
                "manage-realm"
              ]
            }
          },
          "clientRole": true,
          "containerId": "6d38540b-5554-41fd-8174-6cbd55c3f695"
        }
      ],
      "security-admin-console": [],
      "admin-cli": [],
      "asset-service": [
        {
          "id": "451bf8dc-3cbb-4783-bc2e-41f834944b94",
          "name": "MaintenanceSupervisor",
          "description": "This person has access to all the assets, events and workorders and can assign events to maintenance repair engineers",
          "composite": false,
          "clientRole": true,
          "containerId": "47fd7185-d3d8-4165-a308-4210ba3acef9"
        },
        {
          "id": "222deddb-5c17-4204-b858-284f8c91f874",
          "name": "MaintenanceAppSystemAdmin",
          "description": "System admin has access to system console and application preferences only.",
          "composite": false,
          "clientRole": true,
          "containerId": "47fd7185-d3d8-4165-a308-4210ba3acef9"
        },
        {
          "id": "2c3c622a-220f-4852-a378-a3d55e0d9a84",
          "name": "MaintenanceRepairEngineer",
          "description": "Repair engineer has access to only events and workorders and can only update step and status of the repair/events",
          "composite": false,
          "clientRole": true,
          "containerId": "47fd7185-d3d8-4165-a308-4210ba3acef9"
        },
        {
          "id": "9b01002b-972b-4b3a-97cb-01578cbd315d",
          "name": "uma_protection",
          "composite": false,
          "clientRole": true,
          "containerId": "47fd7185-d3d8-4165-a308-4210ba3acef9"
        },
        {
          "id": "61ff7d93-8493-4d0d-8836-32e391d8bfc3",
          "name": "MaintenanceInsightsManager",
          "description": "This person has access to insights dashboard, but cannot take any action on maintenance.",
          "composite": false,
          "clientRole": true,
          "containerId": "47fd7185-d3d8-4165-a308-4210ba3acef9"
        },
        {
          "id": "8199933e-3de5-4264-9932-1b208dd81316",
          "name": "MaintenanceManager",
          "description": "Maintenance manager is the person who can create/assign/manage events and work orders. The maintenance manager can view all the insights dashboards",
          "composite": false,
          "clientRole": true,
          "containerId": "47fd7185-d3d8-4165-a308-4210ba3acef9"
        }
      ],
      "broker": [
        {
          "id": "51c7040f-7bde-4310-b252-ef987f9c8fb0",
          "name": "read-token",
          "description": "${role_read-token}",
          "composite": false,
          "clientRole": true,
          "containerId": "c5bd679f-2647-4ecf-8c9e-0f936b6b0869"
        }
      ],
      "mipoc4webapp": [
        {
          "id": "16237742-b73b-4c6a-95ab-fe53e95c7926",
          "name": "MaintenanceRepairEngineer",
          "composite": false,
          "clientRole": true,
          "containerId": "ab60af45-e71a-4b8b-ac81-82e216b21d99"
        },
        {
          "id": "dda93a92-bb0b-4481-a14c-e752cd97a42b",
          "name": "uma_protection",
          "composite": false,
          "clientRole": true,
          "containerId": "ab60af45-e71a-4b8b-ac81-82e216b21d99"
        }
      ],
      "account": [
        {
          "id": "ab82f1f8-ff6b-4970-9cae-6e3d76cd0da9",
          "name": "manage-account",
          "description": "${role_manage-account}",
          "composite": true,
          "composites": {
            "client": {
              "account": [
                "manage-account-links"
              ]
            }
          },
          "clientRole": true,
          "containerId": "794574aa-7dd2-4b65-9dd3-a581253c7e6d"
        },
        {
          "id": "35537ba9-6a0b-4f52-aefb-aea6c2439600",
          "name": "view-profile",
          "description": "${role_view-profile}",
          "composite": false,
          "clientRole": true,
          "containerId": "794574aa-7dd2-4b65-9dd3-a581253c7e6d"
        },
        {
          "id": "0eaafb20-2cae-40d3-b21f-8a2ac2bc73fc",
          "name": "manage-account-links",
          "description": "${role_manage-account-links}",
          "composite": false,
          "clientRole": true,
          "containerId": "794574aa-7dd2-4b65-9dd3-a581253c7e6d"
        }
      ]
    }
  },
  "groups": [
    {
      "id": "72fbc328-a986-45dd-b11f-5a70a8864788",
      "name": "IOTAppsAdmin",
      "path": "/IOTAppsAdmin",
      "attributes": {},
      "realmRoles": [],
      "clientRoles": {},
      "subGroups": []
    }
  ],
  "defaultRoles": [
    "uma_authorization",
    "offline_access"
  ],
  "requiredCredentials": [
    "password"
  ],
  "otpPolicyType": "totp",
  "otpPolicyAlgorithm": "HmacSHA1",
  "otpPolicyInitialCounter": 0,
  "otpPolicyDigits": 6,
  "otpPolicyLookAheadWindow": 1,
  "otpPolicyPeriod": 30,
  "otpSupportedApplications": [
    "FreeOTP",
    "Google Authenticator"
  ],
  "scopeMappings": [
    {
      "clientScope": "offline_access",
      "roles": [
        "offline_access"
      ]
    }
  ],
  "clients": [
    {
      "id": "ab60af45-e71a-4b8b-ac81-82e216b21d99",
      "clientId": "mipoc4webapp",
      "name": "mipoc4webapp",
      "description": "Webapp serving MI-Apps",
      "surrogateAuthRequired": false,
      "enabled": true,
      "clientAuthenticatorType": "client-secret",
      "secret": "b45e55ce-ecf5-45ca-b58b-f683fa11d6a3",
      "redirectUris": [],
      "webOrigins": [
        "localhost",
        "172.20.43.69:8956",
        "172.20.43.69",
        "http://172.20.43.69:8956",
        "*"
      ],
      "notBefore": 0,
      "bearerOnly": false,
      "consentRequired": false,
      "standardFlowEnabled": false,
      "implicitFlowEnabled": false,
      "directAccessGrantsEnabled": true,
      "serviceAccountsEnabled": true,
      "publicClient": false,
      "frontchannelLogout": false,
      "protocol": "openid-connect",
      "attributes": {
        "saml.assertion.signature": "false",
        "saml.force.post.binding": "false",
        "saml.multivalued.roles": "false",
        "saml.encrypt": "false",
        "saml.server.signature": "false",
        "saml.server.signature.keyinfo.ext": "false",
        "exclude.session.state.from.auth.response": "false",
        "saml_force_name_id_format": "false",
        "saml.client.signature": "false",
        "tls.client.certificate.bound.access.tokens": "false",
        "saml.authnstatement": "false",
        "display.on.consent.screen": "false",
        "saml.onetimeuse.condition": "false"
      },
      "authenticationFlowBindingOverrides": {},
      "fullScopeAllowed": true,
      "nodeReRegistrationTimeout": -1,
      "protocolMappers": [
        {
          "id": "b2f16347-4c74-42c4-90bc-76489440489e",
          "name": "Client IP Address",
          "protocol": "openid-connect",
          "protocolMapper": "oidc-usersessionmodel-note-mapper",
          "consentRequired": false,
          "config": {
            "user.session.note": "clientAddress",
            "id.token.claim": "true",
            "access.token.claim": "true",
            "claim.name": "clientAddress",
            "jsonType.label": "String"
          }
        },
        {
          "id": "40398228-8526-48a5-840b-713874f432e6",
          "name": "Client ID",
          "protocol": "openid-connect",
          "protocolMapper": "oidc-usersessionmodel-note-mapper",
          "consentRequired": false,
          "config": {
            "user.session.note": "clientId",
            "id.token.claim": "true",
            "access.token.claim": "true",
            "claim.name": "clientId",
            "jsonType.label": "String"
          }
        },
        {
          "id": "faa461f7-b925-4383-aa6e-ea2ab513e4f4",
          "name": "Client Host",
          "protocol": "openid-connect",
          "protocolMapper": "oidc-usersessionmodel-note-mapper",
          "consentRequired": false,
          "config": {
            "user.session.note": "clientHost",
            "id.token.claim": "true",
            "access.token.claim": "true",
            "claim.name": "clientHost",
            "jsonType.label": "String"
          }
        }
      ],
      "defaultClientScopes": [
        "role_list",
        "profile",
        "email"
      ],
      "optionalClientScopes": [
        "address",
        "phone",
        "offline_access"
      ]
    },
    {
      "id": "6d38540b-5554-41fd-8174-6cbd55c3f695",
      "clientId": "realm-management",
      "name": "${client_realm-management}",
      "surrogateAuthRequired": false,
      "enabled": true,
      "clientAuthenticatorType": "client-secret",
      "secret": "**********",
      "redirectUris": [],
      "webOrigins": [],
      "notBefore": 0,
      "bearerOnly": true,
      "consentRequired": false,
      "standardFlowEnabled": true,
      "implicitFlowEnabled": false,
      "directAccessGrantsEnabled": false,
      "serviceAccountsEnabled": false,
      "authorizationServicesEnabled": true,
      "publicClient": false,
      "frontchannelLogout": false,
      "protocol": "openid-connect",
      "attributes": {},
      "authenticationFlowBindingOverrides": {},
      "fullScopeAllowed": false,
      "nodeReRegistrationTimeout": 0,
      "defaultClientScopes": [
        "role_list",
        "profile",
        "email"
      ],
      "optionalClientScopes": [
        "address",
        "phone",
        "offline_access"
      ],
      "authorizationSettings": {
        "allowRemoteResourceManagement": false,
        "policyEnforcementMode": "ENFORCING",
        "resources": [
          {
            "name": "Users",
            "ownerManagedAccess": false,
            "attributes": {},
            "_id": "7d249537-77fb-45a0-8ba3-bf37f3907a52",
            "uris": [],
            "scopes": [
              {
                "name": "user-impersonated"
              },
              {
                "name": "manage-group-membership"
              },
              {
                "name": "view"
              },
              {
                "name": "impersonate"
              },
              {
                "name": "map-roles"
              },
              {
                "name": "manage"
              }
            ]
          },
          {
            "name": "client.resource.ab60af45-e71a-4b8b-ac81-82e216b21d99",
            "type": "Client",
            "ownerManagedAccess": false,
            "attributes": {},
            "_id": "1e7a28a5-1bd8-4b5e-b360-0847e3aaf72b",
            "uris": [],
            "scopes": [
              {
                "name": "view"
              },
              {
                "name": "map-roles-client-scope"
              },
              {
                "name": "configure"
              },
              {
                "name": "map-roles"
              },
              {
                "name": "manage"
              },
              {
                "name": "token-exchange"
              },
              {
                "name": "map-roles-composite"
              }
            ]
          },
          {
            "name": "role.resource.8199933e-3de5-4264-9932-1b208dd81316",
            "type": "Role",
            "ownerManagedAccess": false,
            "attributes": {},
            "_id": "4ce30a13-4d2a-430b-aaef-ccee2a4b61b5",
            "uris": [],
            "scopes": [
              {
                "name": "map-role-composite"
              },
              {
                "name": "map-role-client-scope"
              },
              {
                "name": "map-role"
              }
            ]
          }
        ],
        "policies": [
          {
            "id": "a4f3b9eb-6ed9-49ce-85d0-fa2c4acb6d17",
            "name": "manage.permission.users",
            "type": "scope",
            "logic": "POSITIVE",
            "decisionStrategy": "UNANIMOUS",
            "config": {
              "resources": "[\"Users\"]",
              "scopes": "[\"manage\"]"
            }
          },
          {
            "id": "64752e48-a1eb-4165-a358-1da20473f6c6",
            "name": "view.permission.users",
            "type": "scope",
            "logic": "POSITIVE",
            "decisionStrategy": "UNANIMOUS",
            "config": {
              "resources": "[\"Users\"]",
              "scopes": "[\"view\"]"
            }
          },
          {
            "id": "58206fbc-c1ba-46d4-93cd-f1b17f7d0ca3",
            "name": "map-roles.permission.users",
            "type": "scope",
            "logic": "POSITIVE",
            "decisionStrategy": "UNANIMOUS",
            "config": {
              "resources": "[\"Users\"]",
              "scopes": "[\"map-roles\"]"
            }
          },
          {
            "id": "316d0a2a-830d-43fc-8f84-69af21bed716",
            "name": "manage-group-membership.permission.users",
            "type": "scope",
            "logic": "POSITIVE",
            "decisionStrategy": "UNANIMOUS",
            "config": {
              "resources": "[\"Users\"]",
              "scopes": "[\"manage-group-membership\"]"
            }
          },
          {
            "id": "7b9ee480-c16e-4b5b-962a-bad4fa6e647f",
            "name": "admin-impersonating.permission.users",
            "type": "scope",
            "logic": "POSITIVE",
            "decisionStrategy": "UNANIMOUS",
            "config": {
              "resources": "[\"Users\"]",
              "scopes": "[\"impersonate\"]"
            }
          },
          {
            "id": "17881bc6-ddcf-4147-99ad-a61764becf16",
            "name": "user-impersonated.permission.users",
            "type": "scope",
            "logic": "POSITIVE",
            "decisionStrategy": "UNANIMOUS",
            "config": {
              "resources": "[\"Users\"]",
              "scopes": "[\"user-impersonated\"]"
            }
          },
          {
            "id": "9db812fb-4619-4851-8ff7-89ce789767b0",
            "name": "manage.permission.client.ab60af45-e71a-4b8b-ac81-82e216b21d99",
            "type": "scope",
            "logic": "POSITIVE",
            "decisionStrategy": "UNANIMOUS",
            "config": {
              "resources": "[\"client.resource.ab60af45-e71a-4b8b-ac81-82e216b21d99\"]",
              "scopes": "[\"manage\"]"
            }
          },
          {
            "id": "afa401ae-f58c-44d9-9aa7-88d043c309c7",
            "name": "configure.permission.client.ab60af45-e71a-4b8b-ac81-82e216b21d99",
            "type": "scope",
            "logic": "POSITIVE",
            "decisionStrategy": "UNANIMOUS",
            "config": {
              "resources": "[\"client.resource.ab60af45-e71a-4b8b-ac81-82e216b21d99\"]",
              "scopes": "[\"configure\"]"
            }
          },
          {
            "id": "d08bbe0d-0f8c-484c-bb77-a2d09411988c",
            "name": "view.permission.client.ab60af45-e71a-4b8b-ac81-82e216b21d99",
            "type": "scope",
            "logic": "POSITIVE",
            "decisionStrategy": "UNANIMOUS",
            "config": {
              "resources": "[\"client.resource.ab60af45-e71a-4b8b-ac81-82e216b21d99\"]",
              "scopes": "[\"view\"]"
            }
          },
          {
            "id": "8d10103f-3c12-424f-8608-1bc3805d66cc",
            "name": "map-roles.permission.client.ab60af45-e71a-4b8b-ac81-82e216b21d99",
            "type": "scope",
            "logic": "POSITIVE",
            "decisionStrategy": "UNANIMOUS",
            "config": {
              "resources": "[\"client.resource.ab60af45-e71a-4b8b-ac81-82e216b21d99\"]",
              "scopes": "[\"map-roles\"]"
            }
          },
          {
            "id": "839bfb4a-8e57-4a21-87bf-117aef5aa31b",
            "name": "map-roles-client-scope.permission.client.ab60af45-e71a-4b8b-ac81-82e216b21d99",
            "type": "scope",
            "logic": "POSITIVE",
            "decisionStrategy": "UNANIMOUS",
            "config": {
              "resources": "[\"client.resource.ab60af45-e71a-4b8b-ac81-82e216b21d99\"]",
              "scopes": "[\"map-roles-client-scope\"]"
            }
          },
          {
            "id": "854da89a-7d61-46f7-a2b2-9e505ac4112a",
            "name": "map-roles-composite.permission.client.ab60af45-e71a-4b8b-ac81-82e216b21d99",
            "type": "scope",
            "logic": "POSITIVE",
            "decisionStrategy": "UNANIMOUS",
            "config": {
              "resources": "[\"client.resource.ab60af45-e71a-4b8b-ac81-82e216b21d99\"]",
              "scopes": "[\"map-roles-composite\"]"
            }
          },
          {
            "id": "31372d34-2290-4067-b270-334b8f0df3c2",
            "name": "token-exchange.permission.client.ab60af45-e71a-4b8b-ac81-82e216b21d99",
            "type": "scope",
            "logic": "POSITIVE",
            "decisionStrategy": "UNANIMOUS",
            "config": {
              "resources": "[\"client.resource.ab60af45-e71a-4b8b-ac81-82e216b21d99\"]",
              "scopes": "[\"token-exchange\"]"
            }
          },
          {
            "id": "d0acd960-9da4-4de8-8325-42972b8cc4c6",
            "name": "map-role.permission.8199933e-3de5-4264-9932-1b208dd81316",
            "type": "scope",
            "logic": "POSITIVE",
            "decisionStrategy": "AFFIRMATIVE",
            "config": {
              "resources": "[\"role.resource.8199933e-3de5-4264-9932-1b208dd81316\"]",
              "scopes": "[\"map-role\"]"
            }
          },
          {
            "id": "f7f94033-457b-4dbd-94c9-d50a6a262123",
            "name": "map-role-client-scope.permission.8199933e-3de5-4264-9932-1b208dd81316",
            "type": "scope",
            "logic": "POSITIVE",
            "decisionStrategy": "AFFIRMATIVE",
            "config": {
              "resources": "[\"role.resource.8199933e-3de5-4264-9932-1b208dd81316\"]",
              "scopes": "[\"map-role-client-scope\"]"
            }
          },
          {
            "id": "1cafdaf1-5c7e-4bb5-9c30-228ac7d0dac0",
            "name": "map-role-composite.permission.8199933e-3de5-4264-9932-1b208dd81316",
            "type": "scope",
            "logic": "POSITIVE",
            "decisionStrategy": "AFFIRMATIVE",
            "config": {
              "resources": "[\"role.resource.8199933e-3de5-4264-9932-1b208dd81316\"]",
              "scopes": "[\"map-role-composite\"]"
            }
          }
        ],
        "scopes": [
          {
            "id": "d05c5c3f-5775-4d4e-9139-eccf49319d49",
            "name": "map-role"
          },
          {
            "id": "03dc7212-7ad6-4b84-b43f-25adaf2aa2c1",
            "name": "map-role-client-scope"
          },
          {
            "id": "1bb32336-df49-42d1-8bf6-730a151c7fc1",
            "name": "map-role-composite"
          },
          {
            "id": "c3b184fa-ff4e-40dc-811a-3a58142c9a0f",
            "name": "manage"
          },
          {
            "id": "4f2f00ad-98ef-40e5-9d00-2449c16d1b53",
            "name": "view"
          },
          {
            "id": "51eaf4d1-a8c1-4280-9fb4-b8e45a51b2a2",
            "name": "map-roles"
          },
          {
            "id": "e02bb619-9bd1-42ed-9df6-b31147b8d86f",
            "name": "impersonate"
          },
          {
            "id": "e516186f-0296-4b0b-9ef4-48fec06a4f6a",
            "name": "user-impersonated"
          },
          {
            "id": "9de7d6bb-46bd-43e2-a074-5097e5b4ad50",
            "name": "manage-group-membership"
          },
          {
            "id": "6d8927ae-b8c1-4809-ab20-46ef23ddbfcc",
            "name": "map-roles-client-scope"
          },
          {
            "id": "a13b0a20-30af-40ba-bdc0-69a0f4a36a2d",
            "name": "map-roles-composite"
          },
          {
            "id": "7107904e-f356-40af-8ac9-44eeeddad9ad",
            "name": "configure"
          },
          {
            "id": "3432396c-6de6-4a41-b23e-d1ba251b1557",
            "name": "token-exchange"
          },
          {
            "id": "e909959c-56dc-40ed-8c19-a443a3406cd2",
            "name": "manage-members"
          },
          {
            "id": "e4baabe9-1581-4af1-a5ff-5533fafbb06f",
            "name": "view-members"
          },
          {
            "id": "dd826ec7-b778-49f6-8b9c-cede8b37d80c",
            "name": "manage-membership"
          }
        ]
      }
    },
    {
      "id": "c0c07d1c-66ca-4145-8b13-9357c033b781",
      "clientId": "admin-cli",
      "name": "${client_admin-cli}",
      "surrogateAuthRequired": false,
      "enabled": true,
      "clientAuthenticatorType": "client-secret",
      "secret": "**********",
      "redirectUris": [],
      "webOrigins": [],
      "notBefore": 0,
      "bearerOnly": false,
      "consentRequired": false,
      "standardFlowEnabled": false,
      "implicitFlowEnabled": false,
      "directAccessGrantsEnabled": true,
      "serviceAccountsEnabled": false,
      "publicClient": true,
      "frontchannelLogout": false,
      "protocol": "openid-connect",
      "attributes": {},
      "authenticationFlowBindingOverrides": {},
      "fullScopeAllowed": false,
      "nodeReRegistrationTimeout": 0,
      "defaultClientScopes": [
        "role_list",
        "profile",
        "email"
      ],
      "optionalClientScopes": [
        "address",
        "phone",
        "offline_access"
      ]
    },
    {
      "id": "794574aa-7dd2-4b65-9dd3-a581253c7e6d",
      "clientId": "account",
      "name": "${client_account}",
      "baseUrl": "/auth/realms/mipoc4/account",
      "surrogateAuthRequired": false,
      "enabled": true,
      "clientAuthenticatorType": "client-secret",
      "secret": "**********",
      "defaultRoles": [
        "view-profile",
        "manage-account"
      ],
      "redirectUris": [
        "/auth/realms/mipoc4/account/*"
      ],
      "webOrigins": [],
      "notBefore": 0,
      "bearerOnly": false,
      "consentRequired": false,
      "standardFlowEnabled": true,
      "implicitFlowEnabled": false,
      "directAccessGrantsEnabled": false,
      "serviceAccountsEnabled": false,
      "publicClient": false,
      "frontchannelLogout": false,
      "protocol": "openid-connect",
      "attributes": {},
      "authenticationFlowBindingOverrides": {},
      "fullScopeAllowed": false,
      "nodeReRegistrationTimeout": 0,
      "defaultClientScopes": [
        "role_list",
        "profile",
        "email"
      ],
      "optionalClientScopes": [
        "address",
        "phone",
        "offline_access"
      ]
    },
    {
      "id": "47fd7185-d3d8-4165-a308-4210ba3acef9",
      "clientId": "asset-service",
      "surrogateAuthRequired": false,
      "enabled": true,
      "clientAuthenticatorType": "client-secret",
      "secret": "**********",
      "redirectUris": [],
      "webOrigins": [
        "*"
      ],
      "notBefore": 0,
      "bearerOnly": false,
      "consentRequired": false,
      "standardFlowEnabled": false,
      "implicitFlowEnabled": false,
      "directAccessGrantsEnabled": true,
      "serviceAccountsEnabled": true,
      "authorizationServicesEnabled": true,
      "publicClient": false,
      "frontchannelLogout": false,
      "protocol": "openid-connect",
      "attributes": {
        "saml.assertion.signature": "false",
        "saml.force.post.binding": "false",
        "saml.multivalued.roles": "false",
        "saml.encrypt": "false",
        "saml.server.signature": "false",
        "saml.server.signature.keyinfo.ext": "false",
        "exclude.session.state.from.auth.response": "false",
        "saml_force_name_id_format": "false",
        "saml.client.signature": "false",
        "tls.client.certificate.bound.access.tokens": "false",
        "saml.authnstatement": "false",
        "display.on.consent.screen": "false",
        "saml.onetimeuse.condition": "false"
      },
      "authenticationFlowBindingOverrides": {},
      "fullScopeAllowed": true,
      "nodeReRegistrationTimeout": -1,
      "protocolMappers": [
        {
          "id": "82f0a1c8-8975-477c-89f5-363a8f083f5d",
          "name": "roles",
          "protocol": "openid-connect",
          "protocolMapper": "oidc-usermodel-realm-role-mapper",
          "consentRequired": false,
          "config": {
            "id.token.claim": "true",
            "access.token.claim": "true",
            "jsonType.label": "String",
            "multivalued": "true",
            "userinfo.token.claim": "true"
          }
        },
        {
          "id": "e692bcb2-c257-4543-a9d3-ec01475dcf11",
          "name": "Client ID",
          "protocol": "openid-connect",
          "protocolMapper": "oidc-usersessionmodel-note-mapper",
          "consentRequired": false,
          "config": {
            "user.session.note": "clientId",
            "id.token.claim": "true",
            "access.token.claim": "true",
            "claim.name": "clientId",
            "jsonType.label": "String"
          }
        },
        {
          "id": "20770b07-ce6d-40eb-be25-e18d2182071c",
          "name": "Client IP Address",
          "protocol": "openid-connect",
          "protocolMapper": "oidc-usersessionmodel-note-mapper",
          "consentRequired": false,
          "config": {
            "user.session.note": "clientAddress",
            "id.token.claim": "true",
            "access.token.claim": "true",
            "claim.name": "clientAddress",
            "jsonType.label": "String"
          }
        },
        {
          "id": "db2a715f-775e-4f53-a458-f2722bf07d07",
          "name": "userdetails",
          "protocol": "openid-connect",
          "protocolMapper": "oidc-usermodel-property-mapper",
          "consentRequired": false,
          "config": {
            "user.attribute": "uid",
            "id.token.claim": "true",
            "access.token.claim": "true",
            "jsonType.label": "String",
            "userinfo.token.claim": "true"
          }
        },
        {
          "id": "5ce71333-7b44-4ce9-a8e9-8760a0959c3b",
          "name": "Client Host",
          "protocol": "openid-connect",
          "protocolMapper": "oidc-usersessionmodel-note-mapper",
          "consentRequired": false,
          "config": {
            "user.session.note": "clientHost",
            "id.token.claim": "true",
            "access.token.claim": "true",
            "claim.name": "clientHost",
            "jsonType.label": "String"
          }
        }
      ],
      "defaultClientScopes": [
        "role_list",
        "profile",
        "email"
      ],
      "optionalClientScopes": [
        "address",
        "phone",
        "offline_access"
      ],
      "authorizationSettings": {
        "allowRemoteResourceManagement": false,
        "policyEnforcementMode": "ENFORCING",
        "resources": [
          {
            "name": "Default Resource",
            "type": "urn:asset-service:resources:default",
            "ownerManagedAccess": false,
            "attributes": {},
            "_id": "829cf615-bdf8-4927-9e4a-5cf749005703",
            "uris": [
              "/*"
            ]
          },
          {
            "name": "AssetEndPoints",
            "type": "API",
            "ownerManagedAccess": false,
            "displayName": "AssetEndPoints",
            "attributes": {},
            "_id": "b605d631-38b9-458d-af71-e37e4855bebc",
            "uris": [
              "/assets/graphql"
            ]
          }
        ],
        "policies": [
          {
            "id": "a49de15f-b3a0-4674-be0a-baf664738431",
            "name": "Default Policy",
            "description": "A policy that grants access only for users within this realm",
            "type": "js",
            "logic": "POSITIVE",
            "decisionStrategy": "AFFIRMATIVE",
            "config": {
              "code": "// by default, grants any permission associated with this policy\n$evaluation.grant();\n"
            }
          },
          {
            "id": "e1c835d6-0fe9-4295-8088-d687ffeceab6",
            "name": "AssetAccessPolicy",
            "type": "role",
            "logic": "POSITIVE",
            "decisionStrategy": "UNANIMOUS",
            "config": {
              "roles": "[{\"id\":\"asset-service/MaintenanceSupervisor\",\"required\":false},{\"id\":\"asset-service/MaintenanceRepairEngineer\",\"required\":false},{\"id\":\"asset-service/MaintenanceInsightsManager\",\"required\":false},{\"id\":\"asset-service/MaintenanceManager\",\"required\":false},{\"id\":\"uma_authorization\",\"required\":false}]"
            }
          },
          {
            "id": "47a20e0a-136a-461c-9d8c-d3ca737d3655",
            "name": "MaintenanceAppSystemAdminGroupPolicy",
            "type": "group",
            "logic": "POSITIVE",
            "decisionStrategy": "UNANIMOUS",
            "config": {
              "groups": "[{\"path\":\"/IOTAppsAdmin\",\"extendChildren\":true}]"
            }
          },
          {
            "id": "f5ca63da-724e-4f60-b893-a91a3a868bd5",
            "name": "Default Permission",
            "description": "A permission that applies to the default resource type",
            "type": "resource",
            "logic": "POSITIVE",
            "decisionStrategy": "UNANIMOUS",
            "config": {
              "defaultResourceType": "urn:asset-service:resources:default",
              "applyPolicies": "[\"Default Policy\"]"
            }
          },
          {
            "id": "164fc9d5-9e10-4f3c-a0ae-e2ae5c301bed",
            "name": "AssetEndPointsPermission",
            "type": "resource",
            "logic": "POSITIVE",
            "decisionStrategy": "UNANIMOUS",
            "config": {
              "resources": "[\"AssetEndPoints\"]",
              "applyPolicies": "[\"AssetAccessPolicy\",\"MaintenanceAppSystemAdminGroupPolicy\"]"
            }
          }
        ],
        "scopes": []
      }
    },
    {
      "id": "c49b9bdb-4b05-4106-886d-c483a4d3ffba",
      "clientId": "security-admin-console",
      "name": "${client_security-admin-console}",
      "baseUrl": "/auth/admin/mipoc4/console/index.html",
      "surrogateAuthRequired": false,
      "enabled": true,
      "clientAuthenticatorType": "client-secret",
      "secret": "**********",
      "redirectUris": [
        "/auth/admin/mipoc4/console/*"
      ],
      "webOrigins": [],
      "notBefore": 0,
      "bearerOnly": false,
      "consentRequired": false,
      "standardFlowEnabled": true,
      "implicitFlowEnabled": false,
      "directAccessGrantsEnabled": false,
      "serviceAccountsEnabled": false,
      "publicClient": true,
      "frontchannelLogout": false,
      "protocol": "openid-connect",
      "attributes": {},
      "authenticationFlowBindingOverrides": {},
      "fullScopeAllowed": false,
      "nodeReRegistrationTimeout": 0,
      "protocolMappers": [
        {
          "id": "f6690cd8-9740-4477-b8a4-c93b036e14b1",
          "name": "locale",
          "protocol": "openid-connect",
          "protocolMapper": "oidc-usermodel-attribute-mapper",
          "consentRequired": false,
          "config": {
            "userinfo.token.claim": "true",
            "user.attribute": "locale",
            "id.token.claim": "true",
            "access.token.claim": "true",
            "claim.name": "locale",
            "jsonType.label": "String"
          }
        }
      ],
      "defaultClientScopes": [
        "role_list",
        "profile",
        "email"
      ],
      "optionalClientScopes": [
        "address",
        "phone",
        "offline_access"
      ]
    },
    {
      "id": "c5bd679f-2647-4ecf-8c9e-0f936b6b0869",
      "clientId": "broker",
      "name": "${client_broker}",
      "surrogateAuthRequired": false,
      "enabled": true,
      "clientAuthenticatorType": "client-secret",
      "secret": "**********",
      "redirectUris": [],
      "webOrigins": [],
      "notBefore": 0,
      "bearerOnly": false,
      "consentRequired": false,
      "standardFlowEnabled": true,
      "implicitFlowEnabled": false,
      "directAccessGrantsEnabled": false,
      "serviceAccountsEnabled": false,
      "publicClient": false,
      "frontchannelLogout": false,
      "protocol": "openid-connect",
      "attributes": {},
      "authenticationFlowBindingOverrides": {},
      "fullScopeAllowed": false,
      "nodeReRegistrationTimeout": 0,
      "defaultClientScopes": [
        "role_list",
        "profile",
        "email"
      ],
      "optionalClientScopes": [
        "address",
        "phone",
        "offline_access"
      ]
    }
  ],
  "clientScopes": [
    {
      "id": "b28644a3-ae45-4e34-aa04-f625d52402ec",
      "name": "address",
      "description": "OpenID Connect built-in scope: address",
      "protocol": "openid-connect",
      "attributes": {
        "consent.screen.text": "${addressScopeConsentText}",
        "display.on.consent.screen": "true"
      },
      "protocolMappers": [
        {
          "id": "d835617a-5796-4e72-b3a1-9a9d610d1f02",
          "name": "address",
          "protocol": "openid-connect",
          "protocolMapper": "oidc-address-mapper",
          "consentRequired": false,
          "config": {
            "user.attribute.formatted": "formatted",
            "user.attribute.country": "country",
            "user.attribute.postal_code": "postal_code",
            "userinfo.token.claim": "true",
            "user.attribute.street": "street",
            "id.token.claim": "true",
            "user.attribute.region": "region",
            "access.token.claim": "true",
            "user.attribute.locality": "locality"
          }
        }
      ]
    },
    {
      "id": "9451ac2a-e3d2-4a2c-965d-6a5b52544b3d",
      "name": "email",
      "description": "OpenID Connect built-in scope: email",
      "protocol": "openid-connect",
      "attributes": {
        "consent.screen.text": "${emailScopeConsentText}",
        "display.on.consent.screen": "true"
      },
      "protocolMappers": [
        {
          "id": "07149f7d-dba0-411c-8a8e-9f2da4adc2b5",
          "name": "email verified",
          "protocol": "openid-connect",
          "protocolMapper": "oidc-usermodel-property-mapper",
          "consentRequired": false,
          "config": {
            "userinfo.token.claim": "true",
            "user.attribute": "emailVerified",
            "id.token.claim": "true",
            "access.token.claim": "true",
            "claim.name": "email_verified",
            "jsonType.label": "boolean"
          }
        },
        {
          "id": "e7cbb4ea-cef8-4787-972b-8f5ca45c6872",
          "name": "email",
          "protocol": "openid-connect",
          "protocolMapper": "oidc-usermodel-property-mapper",
          "consentRequired": false,
          "config": {
            "userinfo.token.claim": "true",
            "user.attribute": "email",
            "id.token.claim": "true",
            "access.token.claim": "true",
            "claim.name": "email",
            "jsonType.label": "String"
          }
        }
      ]
    },
    {
      "id": "919d57d0-06a9-4d89-a995-c5c65096a6f6",
      "name": "offline_access",
      "description": "OpenID Connect built-in scope: offline_access",
      "protocol": "openid-connect",
      "attributes": {
        "consent.screen.text": "${offlineAccessScopeConsentText}",
        "display.on.consent.screen": "true"
      }
    },
    {
      "id": "1d812543-54ff-4e6e-9d68-f92146e09fad",
      "name": "phone",
      "description": "OpenID Connect built-in scope: phone",
      "protocol": "openid-connect",
      "attributes": {
        "consent.screen.text": "${phoneScopeConsentText}",
        "display.on.consent.screen": "true"
      },
      "protocolMappers": [
        {
          "id": "11a6b551-b816-4079-ba9d-56f14afee09e",
          "name": "phone number",
          "protocol": "openid-connect",
          "protocolMapper": "oidc-usermodel-attribute-mapper",
          "consentRequired": false,
          "config": {
            "userinfo.token.claim": "true",
            "user.attribute": "phoneNumber",
            "id.token.claim": "true",
            "access.token.claim": "true",
            "claim.name": "phone_number",
            "jsonType.label": "String"
          }
        },
        {
          "id": "c7cbcb71-c11b-4bcf-b44e-8ad27d9f59b7",
          "name": "phone number verified",
          "protocol": "openid-connect",
          "protocolMapper": "oidc-usermodel-attribute-mapper",
          "consentRequired": false,
          "config": {
            "userinfo.token.claim": "true",
            "user.attribute": "phoneNumberVerified",
            "id.token.claim": "true",
            "access.token.claim": "true",
            "claim.name": "phone_number_verified",
            "jsonType.label": "boolean"
          }
        }
      ]
    },
    {
      "id": "b1b5eb55-a533-42af-8111-32c312a21d33",
      "name": "profile",
      "description": "OpenID Connect built-in scope: profile",
      "protocol": "openid-connect",
      "attributes": {
        "consent.screen.text": "${profileScopeConsentText}",
        "display.on.consent.screen": "true"
      },
      "protocolMappers": [
        {
          "id": "3cfc756b-ec3a-4e81-a386-4f91575ed3ae",
          "name": "family name",
          "protocol": "openid-connect",
          "protocolMapper": "oidc-usermodel-property-mapper",
          "consentRequired": false,
          "config": {
            "userinfo.token.claim": "true",
            "user.attribute": "lastName",
            "id.token.claim": "true",
            "access.token.claim": "true",
            "claim.name": "family_name",
            "jsonType.label": "String"
          }
        },
        {
          "id": "988583ca-1ecc-444c-a22c-0e6172912e67",
          "name": "website",
          "protocol": "openid-connect",
          "protocolMapper": "oidc-usermodel-attribute-mapper",
          "consentRequired": false,
          "config": {
            "userinfo.token.claim": "true",
            "user.attribute": "website",
            "id.token.claim": "true",
            "access.token.claim": "true",
            "claim.name": "website",
            "jsonType.label": "String"
          }
        },
        {
          "id": "a1a9f087-99b0-4b22-9e1b-57f7313aa08d",
          "name": "updated at",
          "protocol": "openid-connect",
          "protocolMapper": "oidc-usermodel-attribute-mapper",
          "consentRequired": false,
          "config": {
            "userinfo.token.claim": "true",
            "user.attribute": "updatedAt",
            "id.token.claim": "true",
            "access.token.claim": "true",
            "claim.name": "updated_at",
            "jsonType.label": "String"
          }
        },
        {
          "id": "d4188e1b-f05f-463c-9b25-334eb4c71f2e",
          "name": "locale",
          "protocol": "openid-connect",
          "protocolMapper": "oidc-usermodel-attribute-mapper",
          "consentRequired": false,
          "config": {
            "userinfo.token.claim": "true",
            "user.attribute": "locale",
            "id.token.claim": "true",
            "access.token.claim": "true",
            "claim.name": "locale",
            "jsonType.label": "String"
          }
        },
        {
          "id": "b84caef7-09b8-471c-8158-07272b91abfc",
          "name": "zoneinfo",
          "protocol": "openid-connect",
          "protocolMapper": "oidc-usermodel-attribute-mapper",
          "consentRequired": false,
          "config": {
            "userinfo.token.claim": "true",
            "user.attribute": "zoneinfo",
            "id.token.claim": "true",
            "access.token.claim": "true",
            "claim.name": "zoneinfo",
            "jsonType.label": "String"
          }
        },
        {
          "id": "12768787-bc47-466e-a2ce-c7155d19795d",
          "name": "picture",
          "protocol": "openid-connect",
          "protocolMapper": "oidc-usermodel-attribute-mapper",
          "consentRequired": false,
          "config": {
            "userinfo.token.claim": "true",
            "user.attribute": "picture",
            "id.token.claim": "true",
            "access.token.claim": "true",
            "claim.name": "picture",
            "jsonType.label": "String"
          }
        },
        {
          "id": "976c3e5e-993e-427f-8440-fab5b36e6cb0",
          "name": "middle name",
          "protocol": "openid-connect",
          "protocolMapper": "oidc-usermodel-attribute-mapper",
          "consentRequired": false,
          "config": {
            "userinfo.token.claim": "true",
            "user.attribute": "middleName",
            "id.token.claim": "true",
            "access.token.claim": "true",
            "claim.name": "middle_name",
            "jsonType.label": "String"
          }
        },
        {
          "id": "282dd7cf-8db3-4b72-86b6-be1bb467fb1d",
          "name": "birthdate",
          "protocol": "openid-connect",
          "protocolMapper": "oidc-usermodel-attribute-mapper",
          "consentRequired": false,
          "config": {
            "userinfo.token.claim": "true",
            "user.attribute": "birthdate",
            "id.token.claim": "true",
            "access.token.claim": "true",
            "claim.name": "birthdate",
            "jsonType.label": "String"
          }
        },
        {
          "id": "d4f375cd-282f-481f-868d-b60b767a0776",
          "name": "full name",
          "protocol": "openid-connect",
          "protocolMapper": "oidc-full-name-mapper",
          "consentRequired": false,
          "config": {
            "id.token.claim": "true",
            "access.token.claim": "true",
            "userinfo.token.claim": "true"
          }
        },
        {
          "id": "39173e6a-7f62-4b09-9637-c6e0197099ea",
          "name": "username",
          "protocol": "openid-connect",
          "protocolMapper": "oidc-usermodel-property-mapper",
          "consentRequired": false,
          "config": {
            "userinfo.token.claim": "true",
            "user.attribute": "username",
            "id.token.claim": "true",
            "access.token.claim": "true",
            "claim.name": "preferred_username",
            "jsonType.label": "String"
          }
        },
        {
          "id": "ffc9be1d-ba4c-4e35-9d2c-d953bbd7acb6",
          "name": "nickname",
          "protocol": "openid-connect",
          "protocolMapper": "oidc-usermodel-attribute-mapper",
          "consentRequired": false,
          "config": {
            "userinfo.token.claim": "true",
            "user.attribute": "nickname",
            "id.token.claim": "true",
            "access.token.claim": "true",
            "claim.name": "nickname",
            "jsonType.label": "String"
          }
        },
        {
          "id": "a91bad7a-ae25-4d18-8c4d-479cb9aee1c9",
          "name": "given name",
          "protocol": "openid-connect",
          "protocolMapper": "oidc-usermodel-property-mapper",
          "consentRequired": false,
          "config": {
            "userinfo.token.claim": "true",
            "user.attribute": "firstName",
            "id.token.claim": "true",
            "access.token.claim": "true",
            "claim.name": "given_name",
            "jsonType.label": "String"
          }
        },
        {
          "id": "eb90aef9-d743-4776-b241-9c2f84f1fda3",
          "name": "gender",
          "protocol": "openid-connect",
          "protocolMapper": "oidc-usermodel-attribute-mapper",
          "consentRequired": false,
          "config": {
            "userinfo.token.claim": "true",
            "user.attribute": "gender",
            "id.token.claim": "true",
            "access.token.claim": "true",
            "claim.name": "gender",
            "jsonType.label": "String"
          }
        },
        {
          "id": "c8f33045-f0af-4e12-b51e-676a9e07cc3a",
          "name": "profile",
          "protocol": "openid-connect",
          "protocolMapper": "oidc-usermodel-attribute-mapper",
          "consentRequired": false,
          "config": {
            "userinfo.token.claim": "true",
            "user.attribute": "profile",
            "id.token.claim": "true",
            "access.token.claim": "true",
            "claim.name": "profile",
            "jsonType.label": "String"
          }
        }
      ]
    },
    {
      "id": "3f43d017-8143-48a5-b548-35c650522ee1",
      "name": "role_list",
      "description": "SAML role list",
      "protocol": "saml",
      "attributes": {
        "consent.screen.text": "${samlRoleListScopeConsentText}",
        "display.on.consent.screen": "true"
      },
      "protocolMappers": [
        {
          "id": "98b7fea0-6398-48cd-b6bc-8fde2166d7f4",
          "name": "role list",
          "protocol": "saml",
          "protocolMapper": "saml-role-list-mapper",
          "consentRequired": false,
          "config": {
            "single": "false",
            "attribute.nameformat": "Basic",
            "attribute.name": "Role"
          }
        }
      ]
    }
  ],
  "defaultDefaultClientScopes": [
    "role_list",
    "profile",
    "email"
  ],
  "defaultOptionalClientScopes": [
    "offline_access",
    "address",
    "phone"
  ],
  "browserSecurityHeaders": {
    "xContentTypeOptions": "nosniff",
    "xRobotsTag": "none",
    "xFrameOptions": "SAMEORIGIN",
    "xXSSProtection": "1; mode=block",
    "contentSecurityPolicy": "frame-src 'self'; frame-ancestors 'self'; object-src 'none';",
    "strictTransportSecurity": "max-age=31536000; includeSubDomains"
  },
  "smtpServer": {},
  "eventsEnabled": true,
  "eventsListeners": [
    "jboss-logging"
  ],
  "enabledEventTypes": [
    "SEND_RESET_PASSWORD",
    "REGISTER_NODE_ERROR",
    "REMOVE_TOTP",
    "REVOKE_GRANT",
    "UPDATE_TOTP",
    "LOGIN_ERROR",
    "PERMISSION_TOKEN_ERROR",
    "CLIENT_LOGIN",
    "IDENTITY_PROVIDER_RETRIEVE_TOKEN_ERROR",
    "RESET_PASSWORD_ERROR",
    "IMPERSONATE_ERROR",
    "CODE_TO_TOKEN_ERROR",
    "CUSTOM_REQUIRED_ACTION",
    "RESTART_AUTHENTICATION",
    "CLIENT_INFO",
    "IMPERSONATE",
    "UPDATE_PROFILE_ERROR",
    "VALIDATE_ACCESS_TOKEN",
    "LOGIN",
    "UPDATE_PASSWORD_ERROR",
    "CLIENT_INITIATED_ACCOUNT_LINKING",
    "IDENTITY_PROVIDER_LOGIN",
    "TOKEN_EXCHANGE",
    "LOGOUT",
    "REGISTER",
    "CLIENT_INFO_ERROR",
    "CLIENT_REGISTER",
    "IDENTITY_PROVIDER_LINK_ACCOUNT",
    "INTROSPECT_TOKEN_ERROR",
    "REFRESH_TOKEN",
    "UPDATE_PASSWORD",
    "INTROSPECT_TOKEN",
    "CLIENT_DELETE",
    "FEDERATED_IDENTITY_LINK_ERROR",
    "IDENTITY_PROVIDER_FIRST_LOGIN",
    "CLIENT_DELETE_ERROR",
    "VERIFY_EMAIL",
    "CLIENT_LOGIN_ERROR",
    "RESTART_AUTHENTICATION_ERROR",
    "EXECUTE_ACTIONS",
    "REMOVE_FEDERATED_IDENTITY_ERROR",
    "TOKEN_EXCHANGE_ERROR",
    "UNREGISTER_NODE",
    "PERMISSION_TOKEN",
    "REGISTER_NODE",
    "SEND_IDENTITY_PROVIDER_LINK_ERROR",
    "INVALID_SIGNATURE",
    "USER_INFO_REQUEST_ERROR",
    "EXECUTE_ACTION_TOKEN_ERROR",
    "SEND_VERIFY_EMAIL",
    "IDENTITY_PROVIDER_RESPONSE",
    "EXECUTE_ACTIONS_ERROR",
    "REMOVE_FEDERATED_IDENTITY",
    "IDENTITY_PROVIDER_RETRIEVE_TOKEN",
    "IDENTITY_PROVIDER_POST_LOGIN",
    "IDENTITY_PROVIDER_LINK_ACCOUNT_ERROR",
    "UNREGISTER_NODE_ERROR",
    "VALIDATE_ACCESS_TOKEN_ERROR",
    "UPDATE_EMAIL",
    "REGISTER_ERROR",
    "REVOKE_GRANT_ERROR",
    "EXECUTE_ACTION_TOKEN",
    "LOGOUT_ERROR",
    "UPDATE_EMAIL_ERROR",
    "CLIENT_UPDATE_ERROR",
    "INVALID_SIGNATURE_ERROR",
    "UPDATE_PROFILE",
    "CLIENT_REGISTER_ERROR",
    "FEDERATED_IDENTITY_LINK",
    "USER_INFO_REQUEST",
    "IDENTITY_PROVIDER_RESPONSE_ERROR",
    "SEND_IDENTITY_PROVIDER_LINK",
    "SEND_VERIFY_EMAIL_ERROR",
    "IDENTITY_PROVIDER_LOGIN_ERROR",
    "RESET_PASSWORD",
    "CLIENT_INITIATED_ACCOUNT_LINKING_ERROR",
    "REMOVE_TOTP_ERROR",
    "VERIFY_EMAIL_ERROR",
    "SEND_RESET_PASSWORD_ERROR",
    "CLIENT_UPDATE",
    "REFRESH_TOKEN_ERROR",
    "CUSTOM_REQUIRED_ACTION_ERROR",
    "IDENTITY_PROVIDER_POST_LOGIN_ERROR",
    "UPDATE_TOTP_ERROR",
    "CODE_TO_TOKEN",
    "IDENTITY_PROVIDER_FIRST_LOGIN_ERROR"
  ],
  "adminEventsEnabled": false,
  "adminEventsDetailsEnabled": false,
  "components": {
    "org.keycloak.services.clientregistration.policy.ClientRegistrationPolicy": [
      {
        "id": "c9c8686d-602f-4f37-a23c-0b80402ddcd5",
        "name": "Full Scope Disabled",
        "providerId": "scope",
        "subType": "anonymous",
        "subComponents": {},
        "config": {}
      },
      {
        "id": "e0429653-df20-4a7b-bc03-a2304add8c51",
        "name": "Allowed Client Scopes",
        "providerId": "allowed-client-templates",
        "subType": "authenticated",
        "subComponents": {},
        "config": {
          "allow-default-scopes": [
            "true"
          ]
        }
      },
      {
        "id": "af30e1dc-c91a-413b-b22a-f7ca22ca1dac",
        "name": "Allowed Client Scopes",
        "providerId": "allowed-client-templates",
        "subType": "anonymous",
        "subComponents": {},
        "config": {
          "allow-default-scopes": [
            "true"
          ]
        }
      },
      {
        "id": "dee980ee-3ca6-4892-aeea-131b32159f1d",
        "name": "Allowed Protocol Mapper Types",
        "providerId": "allowed-protocol-mappers",
        "subType": "authenticated",
        "subComponents": {},
        "config": {
          "allowed-protocol-mapper-types": [
            "oidc-address-mapper",
            "saml-user-attribute-mapper",
            "saml-user-property-mapper",
            "oidc-usermodel-attribute-mapper",
            "saml-role-list-mapper",
            "oidc-usermodel-property-mapper",
            "oidc-full-name-mapper",
            "oidc-sha256-pairwise-sub-mapper"
          ]
        }
      },
      {
        "id": "c5daae5e-e1c0-4b32-b52b-9723bbefedf0",
        "name": "Consent Required",
        "providerId": "consent-required",
        "subType": "anonymous",
        "subComponents": {},
        "config": {}
      },
      {
        "id": "0706a493-9e81-42e3-8dee-ad7ab37a401c",
        "name": "Allowed Protocol Mapper Types",
        "providerId": "allowed-protocol-mappers",
        "subType": "anonymous",
        "subComponents": {},
        "config": {
          "allowed-protocol-mapper-types": [
            "oidc-address-mapper",
            "oidc-sha256-pairwise-sub-mapper",
            "saml-role-list-mapper",
            "oidc-usermodel-property-mapper",
            "oidc-full-name-mapper",
            "oidc-usermodel-attribute-mapper",
            "saml-user-attribute-mapper",
            "saml-user-property-mapper"
          ]
        }
      },
      {
        "id": "56f3f25d-434b-4e61-95e8-fc57f0c2dd21",
        "name": "Max Clients Limit",
        "providerId": "max-clients",
        "subType": "anonymous",
        "subComponents": {},
        "config": {
          "max-clients": [
            "200"
          ]
        }
      },
      {
        "id": "c8416f62-f001-4926-87ab-7b8f8b966387",
        "name": "Trusted Hosts",
        "providerId": "trusted-hosts",
        "subType": "anonymous",
        "subComponents": {},
        "config": {
          "host-sending-registration-request-must-match": [
            "true"
          ],
          "client-uris-must-match": [
            "true"
          ]
        }
      }
    ],
    "org.keycloak.storage.UserStorageProvider": [
      {
        "id": "7f4bb796-d12e-4dbb-ada3-de8edee9973e",
        "name": "ldap",
        "providerId": "ldap",
        "subComponents": {
          "org.keycloak.storage.ldap.mappers.LDAPStorageMapper": [
            {
              "id": "764e6d2c-1156-4c5d-9ded-3a06f9deb4d2",
              "name": "email",
              "providerId": "user-attribute-ldap-mapper",
              "subComponents": {},
              "config": {
                "ldap.attribute": [
                  "mail"
                ],
                "is.mandatory.in.ldap": [
                  "false"
                ],
                "read.only": [
                  "true"
                ],
                "always.read.value.from.ldap": [
                  "false"
                ],
                "user.model.attribute": [
                  "email"
                ]
              }
            },
            {
              "id": "4bf73bf3-33f4-46dc-9382-41793c7dab93",
              "name": "creation date",
              "providerId": "user-attribute-ldap-mapper",
              "subComponents": {},
              "config": {
                "ldap.attribute": [
                  "createTimestamp"
                ],
                "is.mandatory.in.ldap": [
                  "false"
                ],
                "read.only": [
                  "true"
                ],
                "always.read.value.from.ldap": [
                  "true"
                ],
                "user.model.attribute": [
                  "createTimestamp"
                ]
              }
            },
            {
              "id": "4cf3f221-87eb-4805-ab34-27f98c0d958f",
              "name": "last name",
              "providerId": "user-attribute-ldap-mapper",
              "subComponents": {},
              "config": {
                "ldap.attribute": [
                  "sn"
                ],
                "is.mandatory.in.ldap": [
                  "true"
                ],
                "is.binary.attribute": [
                  "false"
                ],
                "read.only": [
                  "true"
                ],
                "always.read.value.from.ldap": [
                  "true"
                ],
                "user.model.attribute": [
                  "lastName"
                ]
              }
            },
            {
              "id": "5888635f-d1ba-4dd2-81c4-aacc0bf26b5c",
              "name": "first name",
              "providerId": "user-attribute-ldap-mapper",
              "subComponents": {},
              "config": {
                "ldap.attribute": [
                  "cn"
                ],
                "is.mandatory.in.ldap": [
                  "true"
                ],
                "is.binary.attribute": [
                  "false"
                ],
                "read.only": [
                  "true"
                ],
                "always.read.value.from.ldap": [
                  "true"
                ],
                "user.model.attribute": [
                  "firstName"
                ]
              }
            },
            {
              "id": "ea7ff00c-25b7-4508-aa60-9e2f1c8bf11b",
              "name": "modify date",
              "providerId": "user-attribute-ldap-mapper",
              "subComponents": {},
              "config": {
                "ldap.attribute": [
                  "modifyTimestamp"
                ],
                "is.mandatory.in.ldap": [
                  "false"
                ],
                "read.only": [
                  "true"
                ],
                "always.read.value.from.ldap": [
                  "true"
                ],
                "user.model.attribute": [
                  "modifyTimestamp"
                ]
              }
            },
            {
              "id": "bb6c682e-0a75-4966-8818-7bc0da90ffd7",
              "name": "username",
              "providerId": "user-attribute-ldap-mapper",
              "subComponents": {},
              "config": {
                "ldap.attribute": [
                  "uid"
                ],
                "is.mandatory.in.ldap": [
                  "true"
                ],
                "always.read.value.from.ldap": [
                  "false"
                ],
                "read.only": [
                  "true"
                ],
                "user.model.attribute": [
                  "username"
                ]
              }
            }
          ]
        },
        "config": {
          "pagination": [
            "true"
          ],
          "fullSyncPeriod": [
            "-1"
          ],
          "usersDn": [
            "ou=people,dc=hitachi,dc=com"
          ],
          "connectionPooling": [
            "true"
          ],
          "cachePolicy": [
            "DEFAULT"
          ],
          "useKerberosForPasswordAuthentication": [
            "false"
          ],
          "importEnabled": [
            "true"
          ],
          "enabled": [
            "true"
          ],
          "bindCredential": [
            "**********"
          ],
          "bindDn": [
            "dc=hitachi,dc=com"
          ],
          "changedSyncPeriod": [
            "-1"
          ],
          "usernameLDAPAttribute": [
            "uid"
          ],
          "lastSync": [
            "1534225198"
          ],
          "vendor": [
            "other"
          ],
          "uuidLDAPAttribute": [
            "uid"
          ],
          "connectionUrl": [
            "ldap://172.20.43.69:389"
          ],
          "allowKerberosAuthentication": [
            "false"
          ],
          "syncRegistrations": [
            "false"
          ],
          "authType": [
            "none"
          ],
          "debug": [
            "false"
          ],
          "searchScope": [
            "1"
          ],
          "useTruststoreSpi": [
            "ldapsOnly"
          ],
          "priority": [
            "0"
          ],
          "userObjectClasses": [
            "inetOrgPerson, organizationalPerson, organizationalunit"
          ],
          "rdnLDAPAttribute": [
            "uid"
          ],
          "editMode": [
            "READ_ONLY"
          ],
          "validatePasswordPolicy": [
            "false"
          ],
          "batchSizeForSync": [
            "1000"
          ]
        }
      }
    ],
    "org.keycloak.keys.KeyProvider": [
      {
        "id": "07c3d45d-d985-438d-913a-ca700fa3d327",
        "name": "rsa-generated",
        "providerId": "rsa-generated",
        "subComponents": {},
        "config": {
          "keySize": [
            "2048"
          ],
          "active": [
            "true"
          ],
          "priority": [
            "100"
          ],
          "enabled": [
            "true"
          ]
        }
      },
      {
        "id": "61ae24fb-be70-4d32-a1ad-3f160e527163",
        "name": "aes-generated",
        "providerId": "aes-generated",
        "subComponents": {},
        "config": {
          "priority": [
            "100"
          ]
        }
      },
      {
        "id": "4da4099c-7629-4287-8c3d-ae23176166d6",
        "name": "hmac-generated",
        "providerId": "hmac-generated",
        "subComponents": {},
        "config": {
          "priority": [
            "100"
          ]
        }
      }
    ]
  },
  "internationalizationEnabled": false,
  "supportedLocales": [],
  "authenticationFlows": [
    {
      "id": "bded5f64-c6e5-4c0b-a98b-98232a800e94",
      "alias": "Handle Existing Account",
      "description": "Handle what to do if there is existing account with same email/username like authenticated identity provider",
      "providerId": "basic-flow",
      "topLevel": false,
      "builtIn": true,
      "authenticationExecutions": [
        {
          "authenticator": "idp-confirm-link",
          "requirement": "REQUIRED",
          "priority": 10,
          "userSetupAllowed": false,
          "autheticatorFlow": false
        },
        {
          "authenticator": "idp-email-verification",
          "requirement": "ALTERNATIVE",
          "priority": 20,
          "userSetupAllowed": false,
          "autheticatorFlow": false
        },
        {
          "requirement": "ALTERNATIVE",
          "priority": 30,
          "flowAlias": "Verify Existing Account by Re-authentication",
          "userSetupAllowed": false,
          "autheticatorFlow": true
        }
      ]
    },
    {
      "id": "502255aa-b8e9-42f4-a217-49210c14b2d2",
      "alias": "Verify Existing Account by Re-authentication",
      "description": "Reauthentication of existing account",
      "providerId": "basic-flow",
      "topLevel": false,
      "builtIn": true,
      "authenticationExecutions": [
        {
          "authenticator": "idp-username-password-form",
          "requirement": "REQUIRED",
          "priority": 10,
          "userSetupAllowed": false,
          "autheticatorFlow": false
        },
        {
          "authenticator": "auth-otp-form",
          "requirement": "OPTIONAL",
          "priority": 20,
          "userSetupAllowed": false,
          "autheticatorFlow": false
        }
      ]
    },
    {
      "id": "2fb7d46c-a444-4d37-b1ee-19a01560fa2c",
      "alias": "browser",
      "description": "browser based authentication",
      "providerId": "basic-flow",
      "topLevel": true,
      "builtIn": true,
      "authenticationExecutions": [
        {
          "authenticator": "auth-cookie",
          "requirement": "ALTERNATIVE",
          "priority": 10,
          "userSetupAllowed": false,
          "autheticatorFlow": false
        },
        {
          "authenticator": "auth-spnego",
          "requirement": "DISABLED",
          "priority": 20,
          "userSetupAllowed": false,
          "autheticatorFlow": false
        },
        {
          "authenticator": "identity-provider-redirector",
          "requirement": "ALTERNATIVE",
          "priority": 25,
          "userSetupAllowed": false,
          "autheticatorFlow": false
        },
        {
          "requirement": "ALTERNATIVE",
          "priority": 30,
          "flowAlias": "forms",
          "userSetupAllowed": false,
          "autheticatorFlow": true
        }
      ]
    },
    {
      "id": "dce5b9c7-25a3-474c-9eee-85f7ae64d7c2",
      "alias": "clients",
      "description": "Base authentication for clients",
      "providerId": "client-flow",
      "topLevel": true,
      "builtIn": true,
      "authenticationExecutions": [
        {
          "authenticator": "client-secret",
          "requirement": "ALTERNATIVE",
          "priority": 10,
          "userSetupAllowed": false,
          "autheticatorFlow": false
        },
        {
          "authenticator": "client-jwt",
          "requirement": "ALTERNATIVE",
          "priority": 20,
          "userSetupAllowed": false,
          "autheticatorFlow": false
        },
        {
          "authenticator": "client-secret-jwt",
          "requirement": "ALTERNATIVE",
          "priority": 30,
          "userSetupAllowed": false,
          "autheticatorFlow": false
        }
      ]
    },
    {
      "id": "b009b661-41d1-45f0-82de-24478aa2dc26",
      "alias": "direct grant",
      "description": "OpenID Connect Resource Owner Grant",
      "providerId": "basic-flow",
      "topLevel": true,
      "builtIn": true,
      "authenticationExecutions": [
        {
          "authenticator": "direct-grant-validate-username",
          "requirement": "REQUIRED",
          "priority": 10,
          "userSetupAllowed": false,
          "autheticatorFlow": false
        },
        {
          "authenticator": "direct-grant-validate-password",
          "requirement": "REQUIRED",
          "priority": 20,
          "userSetupAllowed": false,
          "autheticatorFlow": false
        },
        {
          "authenticator": "direct-grant-validate-otp",
          "requirement": "OPTIONAL",
          "priority": 30,
          "userSetupAllowed": false,
          "autheticatorFlow": false
        }
      ]
    },
    {
      "id": "77659a10-10cb-480c-afdb-914f84af84f9",
      "alias": "docker auth",
      "description": "Used by Docker clients to authenticate against the IDP",
      "providerId": "basic-flow",
      "topLevel": true,
      "builtIn": true,
      "authenticationExecutions": [
        {
          "authenticator": "docker-http-basic-authenticator",
          "requirement": "REQUIRED",
          "priority": 10,
          "userSetupAllowed": false,
          "autheticatorFlow": false
        }
      ]
    },
    {
      "id": "33e2ec44-408a-4d50-b834-753f9c7825eb",
      "alias": "first broker login",
      "description": "Actions taken after first broker login with identity provider account, which is not yet linked to any Keycloak account",
      "providerId": "basic-flow",
      "topLevel": true,
      "builtIn": true,
      "authenticationExecutions": [
        {
          "authenticatorConfig": "review profile config",
          "authenticator": "idp-review-profile",
          "requirement": "REQUIRED",
          "priority": 10,
          "userSetupAllowed": false,
          "autheticatorFlow": false
        },
        {
          "authenticatorConfig": "create unique user config",
          "authenticator": "idp-create-user-if-unique",
          "requirement": "ALTERNATIVE",
          "priority": 20,
          "userSetupAllowed": false,
          "autheticatorFlow": false
        },
        {
          "requirement": "ALTERNATIVE",
          "priority": 30,
          "flowAlias": "Handle Existing Account",
          "userSetupAllowed": false,
          "autheticatorFlow": true
        }
      ]
    },
    {
      "id": "cc668c22-19c0-4c7c-860e-143d7fb6627e",
      "alias": "forms",
      "description": "Username, password, otp and other auth forms.",
      "providerId": "basic-flow",
      "topLevel": false,
      "builtIn": true,
      "authenticationExecutions": [
        {
          "authenticator": "auth-username-password-form",
          "requirement": "REQUIRED",
          "priority": 10,
          "userSetupAllowed": false,
          "autheticatorFlow": false
        },
        {
          "authenticator": "auth-otp-form",
          "requirement": "OPTIONAL",
          "priority": 20,
          "userSetupAllowed": false,
          "autheticatorFlow": false
        }
      ]
    },
    {
      "id": "5b1f16fa-b652-4b85-9644-9f29b43d839d",
      "alias": "registration",
      "description": "registration flow",
      "providerId": "basic-flow",
      "topLevel": true,
      "builtIn": true,
      "authenticationExecutions": [
        {
          "authenticator": "registration-page-form",
          "requirement": "REQUIRED",
          "priority": 10,
          "flowAlias": "registration form",
          "userSetupAllowed": false,
          "autheticatorFlow": true
        }
      ]
    },
    {
      "id": "9d6e9905-c3f5-4ca2-9000-0b60300a30ea",
      "alias": "registration form",
      "description": "registration form",
      "providerId": "form-flow",
      "topLevel": false,
      "builtIn": true,
      "authenticationExecutions": [
        {
          "authenticator": "registration-user-creation",
          "requirement": "REQUIRED",
          "priority": 20,
          "userSetupAllowed": false,
          "autheticatorFlow": false
        },
        {
          "authenticator": "registration-profile-action",
          "requirement": "REQUIRED",
          "priority": 40,
          "userSetupAllowed": false,
          "autheticatorFlow": false
        },
        {
          "authenticator": "registration-password-action",
          "requirement": "REQUIRED",
          "priority": 50,
          "userSetupAllowed": false,
          "autheticatorFlow": false
        },
        {
          "authenticator": "registration-recaptcha-action",
          "requirement": "DISABLED",
          "priority": 60,
          "userSetupAllowed": false,
          "autheticatorFlow": false
        }
      ]
    },
    {
      "id": "86ee6f01-c6e3-40a7-b3d1-b297b1e860ea",
      "alias": "reset credentials",
      "description": "Reset credentials for a user if they forgot their password or something",
      "providerId": "basic-flow",
      "topLevel": true,
      "builtIn": true,
      "authenticationExecutions": [
        {
          "authenticator": "reset-credentials-choose-user",
          "requirement": "REQUIRED",
          "priority": 10,
          "userSetupAllowed": false,
          "autheticatorFlow": false
        },
        {
          "authenticator": "reset-credential-email",
          "requirement": "REQUIRED",
          "priority": 20,
          "userSetupAllowed": false,
          "autheticatorFlow": false
        },
        {
          "authenticator": "reset-password",
          "requirement": "REQUIRED",
          "priority": 30,
          "userSetupAllowed": false,
          "autheticatorFlow": false
        },
        {
          "authenticator": "reset-otp",
          "requirement": "OPTIONAL",
          "priority": 40,
          "userSetupAllowed": false,
          "autheticatorFlow": false
        }
      ]
    },
    {
      "id": "96497b5e-4e1f-432d-b3c2-2de4e1eda2fb",
      "alias": "saml ecp",
      "description": "SAML ECP Profile Authentication Flow",
      "providerId": "basic-flow",
      "topLevel": true,
      "builtIn": true,
      "authenticationExecutions": [
        {
          "authenticator": "http-basic-authenticator",
          "requirement": "REQUIRED",
          "priority": 10,
          "userSetupAllowed": false,
          "autheticatorFlow": false
        }
      ]
    }
  ],
  "authenticatorConfig": [
    {
      "id": "0b4fa8f0-3a66-4037-be62-1e21b349117c",
      "alias": "create unique user config",
      "config": {
        "require.password.update.after.registration": "false"
      }
    },
    {
      "id": "c4973597-0184-4c72-85bf-48db08ef6fa3",
      "alias": "review profile config",
      "config": {
        "update.profile.on.first.login": "missing"
      }
    }
  ],
  "requiredActions": [
    {
      "alias": "CONFIGURE_TOTP",
      "name": "Configure OTP",
      "providerId": "CONFIGURE_TOTP",
      "enabled": true,
      "defaultAction": false,
      "priority": 0,
      "config": {}
    },
    {
      "alias": "UPDATE_PASSWORD",
      "name": "Update Password",
      "providerId": "UPDATE_PASSWORD",
      "enabled": true,
      "defaultAction": false,
      "priority": 0,
      "config": {}
    },
    {
      "alias": "UPDATE_PROFILE",
      "name": "Update Profile",
      "providerId": "UPDATE_PROFILE",
      "enabled": true,
      "defaultAction": false,
      "priority": 0,
      "config": {}
    },
    {
      "alias": "VERIFY_EMAIL",
      "name": "Verify Email",
      "providerId": "VERIFY_EMAIL",
      "enabled": true,
      "defaultAction": false,
      "priority": 0,
      "config": {}
    },
    {
      "alias": "terms_and_conditions",
      "name": "Terms and Conditions",
      "providerId": "terms_and_conditions",
      "enabled": false,
      "defaultAction": false,
      "priority": 0,
      "config": {}
    }
  ],
  "browserFlow": "browser",
  "registrationFlow": "registration",
  "directGrantFlow": "direct grant",
  "resetCredentialsFlow": "reset credentials",
  "clientAuthenticationFlow": "clients",
  "dockerAuthenticationFlow": "docker auth",
  "attributes": {
    "_browser_header.xXSSProtection": "1; mode=block",
    "_browser_header.xFrameOptions": "SAMEORIGIN",
    "_browser_header.strictTransportSecurity": "max-age=31536000; includeSubDomains",
    "permanentLockout": "false",
    "quickLoginCheckMilliSeconds": "1000",
    "_browser_header.xRobotsTag": "none",
    "maxFailureWaitSeconds": "900",
    "minimumQuickLoginWaitSeconds": "60",
    "failureFactor": "30",
    "actionTokenGeneratedByUserLifespan": "300",
    "maxDeltaTimeSeconds": "43200",
    "_browser_header.xContentTypeOptions": "nosniff",
    "offlineSessionMaxLifespan": "5184000",
    "actionTokenGeneratedByAdminLifespan": "43200",
    "bruteForceProtected": "false",
    "_browser_header.contentSecurityPolicy": "frame-src 'self'; frame-ancestors 'self'; object-src 'none';",
    "waitIncrementSeconds": "60",
    "offlineSessionMaxLifespanEnabled": "false"
  },
  "keycloakVersion": "4.2.1.Final",
  "userManagedAccessAllowed": false
}