[
  {
    "_key": "CHPP",
    "_id": "assetEntity/CHPP",
    "_rev": "_ZL2h8c----",
    "assetName": "CHPP",
    "createdDate": "2019-01-29T13:18:36.504Z",
    "displayName": "Coal Handling Processsing Plant",
    "image": "",
    "lastUpdated": "2019-01-29T13:18:36.504Z",
    "location": "BMC",
    "manufacturingDate": "2019-01-29T13:18:36.504Z",
    "name": "CHPP",
    "properties": "",
    "templateId": "CHPP"
  },
  {
    "_key": "SecondStage",
    "_id": "assetEntity/SecondStage",
    "_rev": "_ZL2h8c---C",
    "description": "Second Stage",
    "displayName": "Second Stage",
    "location": "CHPP",
    "name": "Second Stage",
    "templateId": "SecondStage"
  },
  {
    "_key": "Tailings",
    "_id": "assetEntity/Tailings",
    "_rev": "_ZMKmKSy---",
    "description": "This is a test 2",
    "displayName": "Tailings",
    "location": "CHPP",
    "model": "Tailings",
    "name": "Tailings",
    "templateId": "Tailings",
    "relatedAssets": [
      {
        "createdDate": "2019-01-29T13:18:36.504Z",
        "displayName": "Coal Handling Processsing Plant",
        "id": "CHPP",
        "lastUpdated": "2019-01-29T13:18:36.504Z",
        "location": "BMC",
        "manufacturingDate": "2019-01-29T13:18:36.504Z",
        "name": "CHPP",
        "relatedAssets": null,
        "templateId": "CHPP"
      }
    ],
    "id": "Tailings",
    "lastUpdated": "2019-08-29T18:09:44.164760066Z",
    "manufacturingDate": "2019-08-29T17:46:44.234167927Z"
  }
]
